{
    "id": "custom-system-builder-beta",
    "title": "Custom System Builder - Beta Version",
    "description": "Build your own system with easy to use components",
    "version": "{VERSION_TAG}",
    "compatibility": {
        "minimum": "11",
        "verified": "11"
    },
    "authors": [
        {
            "name": "Jean-Baptiste Louvet-Daniel",
            "email": "linkedfluuuush@gmail.com",
            "discord": "LinkedFluuuush"
        },
        {
            "name": "Martin1522",
            "email": "martindeutsch152@outlook.de",
            "discord": "Martin1522"
        }
    ],
    "relationships": {
        "requires": [
            {
                "id": "_chatcommands",
                "type": "module",
                "manifest": "https://gitlab.com/woodentavern/foundryvtt-chat-command-lib/-/raw/master/src/module.json",
                "compatibility": {
                    "minimum": "2.0.1",
                    "verified": "2.0.1"
                }
            }
        ]
    },
    "esmodules": ["module/custom-system-builder.js"],
    "scripts": ["lib/math.js", "lib/deep-diff.min.js", "scripts/chat-enhancements.js"],
    "styles": [
        "css/actor/character-display.css",
        "css/actor/template-display.css",
        "css/chat-message.css",
        "css/attributes-editor.css",
        "css/component-editor.css",
        "css/user-input-editor.css",
        "css/export-display.css",
        "css/modifiers-editor.css"
    ],
    "gridDistance": 2,
    "gridUnits": "m",
    "url": "https://gitlab.com/custom-system-builder/custom-system-builder/",
    "manifest": "https://gitlab.com/api/v4/projects/31995966/jobs/artifacts/beta/raw/out/system.json?job=build-beta",
    "download": "https://gitlab.com/api/v4/projects/31995966/jobs/artifacts/beta/raw/out/custom-system-builder-beta.zip?job=build-beta"
}
