{
  "name": "Plate",
  "type": "equippableItem",
  "img": "icons/svg/item-bag.svg",
  "system": {
    "hidden": [],
    "header": {
      "contents": [],
      "key": "custom_header"
    },
    "body": {
      "contents": [
        {
          "key": "",
          "cssClass": "",
          "contents": [
            {
              "key": "",
              "cssClass": "",
              "label": null,
              "defaultValue": null,
              "size": "full-size",
              "icon": "",
              "value": "Armor",
              "rollMessage": "",
              "altRollMessage": "",
              "style": "title",
              "type": "label"
            },
            {
              "key": "",
              "cssClass": "",
              "contents": [
                [
                  {
                    "key": "",
                    "cssClass": "",
                    "label": null,
                    "defaultValue": null,
                    "size": "full-size",
                    "icon": "",
                    "value": "Body Region",
                    "rollMessage": "",
                    "altRollMessage": "",
                    "style": "bold",
                    "type": "label"
                  },
                  {
                    "key": "Body_Region",
                    "cssClass": "",
                    "role": "0",
                    "permission": "0",
                    "tooltip": "",
                    "label": "",
                    "defaultValue": "Full Body",
                    "size": "full-size",
                    "options": [
                      {
                        "key": "Full Body",
                        "value": "Full Body"
                      },
                      {
                        "key": "Head",
                        "value": "Head"
                      },
                      {
                        "key": "Arms",
                        "value": "Arms"
                      },
                      {
                        "key": "Hands",
                        "value": "Hands"
                      },
                      {
                        "key": "Torso",
                        "value": "Torso"
                      },
                      {
                        "key": "Legs",
                        "value": "Legs"
                      },
                      {
                        "key": "Feet",
                        "value": "Feet"
                      }
                    ],
                    "tableKey": null,
                    "tableKeyColumn": null,
                    "tableLabelColumn": null,
                    "type": "select"
                  }
                ],
                [
                  {
                    "key": "",
                    "cssClass": "",
                    "label": null,
                    "defaultValue": null,
                    "size": "full-size",
                    "icon": "",
                    "value": "Armor Protection Standard",
                    "rollMessage": "",
                    "altRollMessage": "",
                    "style": "bold",
                    "type": "label"
                  },
                  {
                    "key": "Armor_Protection_Standard",
                    "cssClass": "",
                    "label": "",
                    "defaultValue": "0",
                    "size": "full-size",
                    "allowDecimal": false,
                    "minVal": "0",
                    "maxVal": "",
                    "allowRelative": false,
                    "showControls": true,
                    "type": "numberField"
                  }
                ],
                [
                  {
                    "key": "",
                    "cssClass": "",
                    "label": null,
                    "defaultValue": null,
                    "size": "full-size",
                    "icon": "",
                    "value": "Sting-Protection",
                    "rollMessage": "",
                    "altRollMessage": "",
                    "style": "bold",
                    "type": "label"
                  },
                  {
                    "key": "Armor_Protection_Sting",
                    "cssClass": "",
                    "label": "",
                    "defaultValue": "0",
                    "size": "full-size",
                    "allowDecimal": false,
                    "minVal": "0",
                    "maxVal": "",
                    "allowRelative": false,
                    "showControls": true,
                    "type": "numberField"
                  }
                ],
                [
                  {
                    "key": "",
                    "cssClass": "",
                    "label": null,
                    "defaultValue": null,
                    "size": "full-size",
                    "icon": "",
                    "value": "Cut-Protection",
                    "rollMessage": "",
                    "altRollMessage": "",
                    "style": "bold",
                    "type": "label"
                  },
                  {
                    "key": "Armor_Protection_Cut",
                    "cssClass": "",
                    "label": "",
                    "defaultValue": "0",
                    "size": "full-size",
                    "allowDecimal": false,
                    "minVal": "0",
                    "maxVal": "",
                    "allowRelative": false,
                    "showControls": true,
                    "type": "numberField"
                  }
                ],
                [
                  {
                    "key": "",
                    "cssClass": "",
                    "label": null,
                    "defaultValue": null,
                    "size": "full-size",
                    "icon": "",
                    "value": "Bludgeoning-Protection",
                    "rollMessage": "",
                    "altRollMessage": "",
                    "style": "bold",
                    "type": "label"
                  },
                  {
                    "key": "Armor_Protection_Bludgeoning",
                    "cssClass": "",
                    "label": "",
                    "defaultValue": "0",
                    "size": "full-size",
                    "allowDecimal": false,
                    "minVal": "0",
                    "maxVal": "",
                    "allowRelative": false,
                    "showControls": true,
                    "type": "numberField"
                  }
                ],
                [
                  {
                    "key": "",
                    "cssClass": "",
                    "label": null,
                    "defaultValue": null,
                    "size": "full-size",
                    "icon": "",
                    "value": "Active",
                    "rollMessage": "",
                    "altRollMessage": "",
                    "style": "bold",
                    "type": "label"
                  },
                  {
                    "key": "Active",
                    "cssClass": "",
                    "label": "",
                    "defaultValue": null,
                    "size": "full-size",
                    "type": "checkbox"
                  }
                ],
                [
                  {
                    "key": "",
                    "cssClass": "",
                    "label": null,
                    "defaultValue": null,
                    "size": "full-size",
                    "icon": "",
                    "value": "Armor Protection Factor",
                    "rollMessage": "",
                    "altRollMessage": "",
                    "style": "bold",
                    "type": "label"
                  },
                  {
                    "key": "Armor_Protection_Factor",
                    "cssClass": "",
                    "role": "0",
                    "permission": "0",
                    "tooltip": "",
                    "label": null,
                    "defaultValue": null,
                    "size": "full-size",
                    "icon": "",
                    "value": "${equalText(Body_Region, 'Full Body') ? 6 : 1}$",
                    "prefix": "",
                    "suffix": "",
                    "rollMessage": "",
                    "altRollMessage": "",
                    "style": "label",
                    "type": "label"
                  }
                ]
              ],
              "cols": "2",
              "rows": "7",
              "layout": "cc",
              "type": "table"
            }
          ],
          "flow": "vertical",
          "align": "center",
          "type": "panel"
        }
      ],
      "key": "custom_body",
      "cssClass": null,
      "flow": null,
      "align": null,
      "type": "panel"
    },
    "display": {
      "width": "600",
      "height": "600",
      "fix_size": false,
      "pp_width": "64",
      "pp_height": "64"
    },
    "template": "S7fUckL8EFSaUm8s",
    "props": {
      "name": "Plate",
      "Body_Region": "Full Body",
      "Armor_Protection_Standard": "4",
      "Armor_Protection_Sting": "9",
      "Armor_Protection_Cut": "10",
      "Armor_Protection_Bludgeoning": "3",
      "Active": false
    },
    "modifiers": [],
    "unique": false,
    "templateSystemUniqueVersion": 937100716
  },
  "effects": [],
  "folder": "pUATzNCnKrv85geG",
  "flags": {
    "custom-system-builder": {
      "version": "2.3.1"
    },
    "exportSource": {
      "world": "example",
      "system": "custom-system-builder",
      "coreVersion": "11.307",
      "systemVersion": "2.3.1"
    }
  },
  "_stats": {
    "systemId": "custom-system-builder",
    "systemVersion": "2.3.1",
    "coreVersion": "11.307",
    "createdTime": 1692208508801,
    "modifiedTime": 1692208536974,
    "lastModifiedBy": "qW8zGX9Ha3g8siz3"
  }
}