{
  "name": "Backpack",
  "type": "equippableItem",
  "img": "icons/svg/item-bag.svg",
  "system": {
    "hidden": [],
    "header": {
      "contents": [],
      "key": "custom_header",
      "cssClass": null,
      "role": 0,
      "permission": 0,
      "tooltip": null,
      "visibilityFormula": null,
      "flow": null,
      "align": null,
      "type": "panel"
    },
    "body": {
      "contents": [
        {
          "key": "",
          "cssClass": "",
          "role": "0",
          "permission": "0",
          "tooltip": "",
          "visibilityFormula": "",
          "contents": [
            {
              "key": "",
              "cssClass": "",
              "role": "0",
              "permission": "0",
              "tooltip": "",
              "visibilityFormula": "",
              "label": null,
              "defaultValue": null,
              "size": "full-size",
              "icon": "",
              "value": "Inventory",
              "prefix": "",
              "suffix": "",
              "rollMessage": "",
              "altRollMessage": "",
              "style": "title",
              "type": "label"
            },
            {
              "key": "",
              "cssClass": "",
              "role": "0",
              "permission": "0",
              "tooltip": "",
              "visibilityFormula": "",
              "contents": [
                [
                  {
                    "key": "",
                    "cssClass": "",
                    "role": "0",
                    "permission": "0",
                    "tooltip": "",
                    "visibilityFormula": "",
                    "label": null,
                    "defaultValue": null,
                    "size": "full-size",
                    "icon": "",
                    "value": "Container",
                    "prefix": "",
                    "suffix": "",
                    "rollMessage": "",
                    "altRollMessage": "",
                    "style": "bold",
                    "type": "label"
                  },
                  {
                    "key": "",
                    "cssClass": "",
                    "role": "0",
                    "permission": "0",
                    "tooltip": "",
                    "visibilityFormula": "",
                    "contents": [
                      {
                        "key": "Container_1",
                        "cssClass": "",
                        "role": "0",
                        "permission": "0",
                        "tooltip": "",
                        "visibilityFormula": "",
                        "label": "Container 1",
                        "defaultValue": "Container_1",
                        "size": "full-size",
                        "group": "Container",
                        "value": "Container_1",
                        "defaultChecked": true,
                        "type": "radioButton"
                      },
                      {
                        "key": "Container_2",
                        "cssClass": "",
                        "role": "0",
                        "permission": "0",
                        "tooltip": "",
                        "visibilityFormula": "",
                        "label": "Container 2",
                        "defaultValue": null,
                        "size": "full-size",
                        "group": "Container",
                        "value": "Container_2",
                        "defaultChecked": false,
                        "type": "radioButton"
                      }
                    ],
                    "flow": "horizontal",
                    "align": "center",
                    "type": "panel"
                  }
                ],
                [
                  {
                    "key": "",
                    "cssClass": "",
                    "role": "0",
                    "permission": "0",
                    "tooltip": "",
                    "visibilityFormula": "",
                    "label": null,
                    "defaultValue": null,
                    "size": "full-size",
                    "icon": "",
                    "value": "Quantity",
                    "prefix": "",
                    "suffix": "",
                    "rollMessage": "",
                    "altRollMessage": "",
                    "style": "bold",
                    "type": "label"
                  },
                  {
                    "key": "Quantity",
                    "cssClass": "",
                    "role": "0",
                    "permission": "0",
                    "tooltip": "",
                    "visibilityFormula": "",
                    "label": "",
                    "defaultValue": "1",
                    "size": "full-size",
                    "allowDecimal": false,
                    "minVal": "0",
                    "maxVal": "",
                    "allowRelative": false,
                    "showControls": true,
                    "controlsStyle": "full",
                    "type": "numberField"
                  }
                ],
                [
                  {
                    "key": "",
                    "cssClass": "",
                    "role": "0",
                    "permission": "0",
                    "tooltip": "",
                    "visibilityFormula": "",
                    "label": null,
                    "defaultValue": null,
                    "size": "full-size",
                    "icon": "",
                    "value": "Weight per unit",
                    "prefix": "",
                    "suffix": "",
                    "rollMessage": "",
                    "altRollMessage": "",
                    "style": "bold",
                    "type": "label"
                  },
                  {
                    "key": "Weight",
                    "cssClass": "",
                    "role": "0",
                    "permission": "0",
                    "tooltip": "",
                    "visibilityFormula": "",
                    "label": "",
                    "defaultValue": "0",
                    "size": "full-size",
                    "allowDecimal": true,
                    "minVal": "",
                    "maxVal": "",
                    "allowRelative": false,
                    "showControls": false,
                    "controlsStyle": "hover",
                    "type": "numberField"
                  }
                ],
                [
                  {
                    "key": "",
                    "cssClass": "",
                    "role": "0",
                    "permission": "0",
                    "tooltip": "",
                    "visibilityFormula": "",
                    "label": null,
                    "defaultValue": null,
                    "size": "full-size",
                    "icon": "",
                    "value": "Description",
                    "prefix": "",
                    "suffix": "",
                    "rollMessage": "",
                    "altRollMessage": "",
                    "style": "bold",
                    "type": "label"
                  },
                  {
                    "key": "Description",
                    "cssClass": "",
                    "role": "0",
                    "permission": "0",
                    "tooltip": "",
                    "visibilityFormula": "",
                    "label": "",
                    "defaultValue": "",
                    "size": null,
                    "style": "dialog",
                    "type": "textArea"
                  }
                ]
              ],
              "cols": "2",
              "rows": "4",
              "layout": "cc",
              "type": "table"
            }
          ],
          "flow": "vertical",
          "align": "center",
          "type": "panel"
        }
      ],
      "key": "custom_body",
      "cssClass": null,
      "role": 0,
      "permission": 0,
      "tooltip": null,
      "visibilityFormula": null,
      "flow": null,
      "align": null,
      "type": "panel"
    },
    "display": {
      "width": "600",
      "height": "600",
      "fix_size": false,
      "pp_width": "64",
      "pp_height": "64"
    },
    "template": "nTmG3as5unTdrkFN",
    "props": {
      "name": "Backpack",
      "Quantity": "1",
      "Description": "<p>You can store things in it</p>",
      "Container": "Container_1",
      "Weight": "2"
    },
    "modifiers": [],
    "unique": false,
    "templateSystemUniqueVersion": 2309091251
  },
  "effects": [],
  "folder": "mXrZkuxGFqY9HTkj",
  "flags": {
    "custom-system-builder": {
      "version": "2.3.1"
    },
    "exportSource": {
      "world": "example",
      "system": "custom-system-builder",
      "coreVersion": "11.307",
      "systemVersion": "2.3.1"
    }
  },
  "_stats": {
    "systemId": "custom-system-builder",
    "systemVersion": "2.3.1",
    "coreVersion": "11.307",
    "createdTime": 1692209447149,
    "modifiedTime": 1692214719394,
    "lastModifiedBy": "qW8zGX9Ha3g8siz3"
  }
}